…
``` r
longer <- letters_df %>%
  pivot_longer(cols = -patient, names_to = "section", values_to = "text")

longer
```

    ## # A tibble: 30 x 3
    ##    patient section                   text                                    
    ##    <chr>   <chr>                     <chr>                                   
    ##  1 1       start                     ""                                      
    ##  2 1       Ref                       " AA/11/BBBB\n"                         
    ##  3 1       Date_Dictd                " 09/01/2019\n"                         
    ##  4 1       Date_Typed                ": 15/01/2019\n\n"                      
    ##  5 1       Dear                      " Dr. A Andrews\n\nMr. Bob BURNQUIST "  
    ##  6 1       Dob                       " 10/10/1976\n\n"                       
    ##  7 1       DateTime_Of_Appt          " 09/01/2019\n"                         
    ##  8 1       Clinic                    " Rheumatology\n\n"                     
    ##  9 1       Reason_For_Attendance     "\nFollow-up - rheumatoid arthritis\n\n"
    ## 10 1       Rheumatological_Diagnoses "\nInflammatory spondyloarthritis\n\n"  
    ## # ... with 20 more rows
